{
  "domain_name": "228416",
  "tenant_id": "0288196c4dae4be0b85c121b7633a6f3",
  "username": "s001144",
  "password": "9M210570k!",
  "networks": "36fefb18-074c-483a-8758-7860918eabb9",
  "region": "ru-3",
  "availability_zone": "ru-3a",
  "volume_type": "fast.ru-3a"
}



